KSTRANA	zkratka	nazev
1	KSČM	Komunistická strana Čech a Moravy
2	ŠANCE_OL	Šance pro náš kraj
3	SNK ED	SNK Evropští demokraté
4	SDŽP	Strana drobných živnostníků a podnikatelů
5	STŘEDOČ.	STŘEDOČEŠI
6	"Z"	Zelení
7	VOLBA_HK	Volba pro kraj
8	S.O.S.	S.O.S. pro kraj
9	"NSK"	"Nezávislí starostové pro kraj"
10	S.cz	Severočeši.cz
11	KOALPAR1	Koalice pro Pardubický kraj
12	KDU-ČSL	Křesťanská a demokratická unie - Československá strana lidová
13	NEZ	NEZÁVISLÍ
15	SLK	Starostové pro Liberecký kraj
16	KOALNEST	Koalice nestraníků
17	MDS	Masarykova demokratická strana
18	SZ	Strana zelených
19	M	Moravané
20	DS_RADAR	Dělnická strana - NE americkému radaru!
21	PROZMENU	Dohoda pro změnu
22	NS+SZR	NÁRODNÍ SOCIALISTÉ A ROZUMNÍ
23	NEZ/DEM	NEZÁVISLÍ DEMOKRATÉ
24	OSOBNOST	Osobnosti kraje
25	Doktoři	Doktoři (za uzdravení společnosti)
26	ČSNS2005	Česká strana národně socialistická
27	NS	Národní strana
28	HAS+ŽIVN	Nejen hasiči a živnostníci pro kraj
29	KOALLIB1	Koalice pro Liberecký kraj
30	SOS	Strana pro otevřenou společnost
31	HAS+ŽIVN	Nejen hasiči a živnostníci pro kraj - www.hnpd.cz, www.sdzp.cz
32	SZR	Strana zdravého rozumu
33	SPR-RSČ	Sdružení pro republiku-Republikánská strana Československa
34	DOHODA_Ú	DOHODA pro Ústecký kraj
35	KOALSTČ1	Koalice pro Středočeský kraj
36	KOALPLZ1	Koalice pro Plzeňský kraj
37	SDŽ	SDŽ - Strana důstojného života
38	US-DEU	Unie svobody - Demokratická unie
39	BPS	Balbínova poetická strana
40	STAR+NEZ	STAROSTOVÉ A NEZÁVISLÍ PRO ZLÍNSKÝ KRAJ
41	SD-SN	Spojení demokraté - Sdružení nezávislých
42	PB	Volte Pravý Blok-stranu za ODVOLAT.polit.,NÍZKÉ daně,VYROVN.rozp.,MIN.byrokr.,SPRAV.just.,PŘÍMOU demokr. WWW.CIBULKA.NET
43	NO!	NESPOKOJENÍ OBČANÉ!
44	DK	Demokracie
45	DOHODAVY	DOHODA pro Vysočinu
46	Alt_2008	Alternativa 2008
47	ODS	Občanská demokratická strana
48	ČSSD	Česká strana sociálně demokratická
49	"Altern"	"ALTERNATIVA PRO KRAJ"
50	KOAL_HK1	Koalice pro Královéhradecký kraj
51	FiS	Folklor i Společnost
52	ČSNS	Česká strana národně sociální
53	DS_POPL	Dělnická strana - za zrušení poplatků ve zdravotnictví
54	KONZKOAL	Konzervativní koalice
55	KOAL_KV1	Koalice pro Karlovarský kraj
56	ESDS	Evropská strana důstojného stáří
57	USZ	Unie pro sport a zdraví
58	"KČ"	Koruna Česká (monarchistická strana Čech, Moravy a Slezska)
59	DOHODAJM	"DOHODA PRO JIŽNÍ MORAVU"
60	SZSP	Sdružení pro zdraví, sport a prosperitu