	index	0
0	Moravskoslezský kraj_53	Občanská demokratická aliance
1	Středočeský kraj_2	SNK sdruž.nez. a Evropští dem.
2	Olomoucký kraj_54	Komunistická str.Čech a Moravy
3	Olomoucký kraj_39	Evropští demokraté
4	Zlínský kraj_9	Správný směr
5	Karlovarský kraj_19	NEZÁVISLÍ
6	Plzeňský kraj_41	SNK sdružení nezávislých
7	Ústecký kraj_34	Pravý Blok
8	Moravskoslezský kraj_19	NEZÁVISLÍ
9	Královéhradecký kraj_19	NEZÁVISLÍ
10	Středočeský kraj_26	Občanská demokratická strana
11	Jihočeský kraj_8	Křesť.demokr.unie-Čs.str.lid.
12	Královéhradecký kraj_54	Komunistická str.Čech a Moravy
13	Jihomoravský kraj_33	Koruna Česká (monarch.strana)
14	Plzeňský kraj_44	Masarykova demokratická strana
15	Liberecký kraj_28	Unie pro sp.a zdr.-Dem.reg.st.
16	Zlínský kraj_54	Komunistická str.Čech a Moravy
17	Ústecký kraj_35	Sdruž.pro zdraví,sport,prosp.
18	Vysočina_8	Křesť.demokr.unie-Čs.str.lid.
19	Karlovarský kraj_52	Národní sjednocení
20	Pardubický kraj_36	Česká str.sociálně demokrat.
21	Jihočeský kraj_26	Občanská demokratická strana
22	Moravskoslezský kraj_21	Strana zelených
23	Ústecký kraj_29	Koalice SOS, HNHRM
24	Moravskoslezský kraj_41	SNK sdružení nezávislých
25	Jihočeský kraj_19	NEZÁVISLÍ
26	Liberecký kraj_21	Strana zelených
27	Vysočina_5	Moravská demokratická strana
28	Vysočina_34	Pravý Blok
29	Karlovarský kraj_34	Pravý Blok
30	Karlovarský kraj_42	Strana za životní jistoty
31	Zlínský kraj_36	Česká str.sociálně demokrat.
32	Jihomoravský kraj_10	Sdružení nezávislých kandidátů
33	Královéhradecký kraj_15	Republikáni Miroslava Sládka
34	Olomoucký kraj_5	Moravská demokratická strana
35	Jihočeský kraj_34	Pravý Blok
36	Zlínský kraj_21	Strana zelených
37	Královéhradecký kraj_36	Česká str.sociálně demokrat.
38	Liberecký kraj_4	Str.pro otevřenou společnost
40	Olomoucký kraj_41	SNK sdružení nezávislých
41	Jihočeský kraj_41	SNK sdružení nezávislých
42	Zlínský kraj_55	Evr.demokr.a Nez.star.pro kraj
43	Jihomoravský kraj_52	Národní sjednocení
44	Královéhradecký kraj_33	Koruna Česká (monarch.strana)
45	Jihočeský kraj_15	Republikáni Miroslava Sládka
46	Karlovarský kraj_47	Dělnická strana
47	Jihomoravský kraj_37	Koalice jižní Morava
48	Olomoucký kraj_26	Občanská demokratická strana
49	Pardubický kraj_47	Dělnická strana
50	Plzeňský kraj_22	Str.zel.a Str.pro otevř.spol.
51	Pardubický kraj_19	NEZÁVISLÍ
52	Liberecký kraj_14	Unie svobody-Demokratická unie
53	Jihomoravský kraj_19	NEZÁVISLÍ
54	Středočeský kraj_42	Strana za životní jistoty
55	Vysočina_41	SNK sdružení nezávislých
56	Pardubický kraj_6	Koalice pro Pardubický kraj
57	Vysočina_15	Republikáni Miroslava Sládka
58	Královéhradecký kraj_38	Demokratická Unie České rep.
59	Středočeský kraj_1	Koalice pro Středočeský kraj
61	Ústecký kraj_36	Česká str.sociálně demokrat.
62	Plzeňský kraj_34	Pravý Blok
63	Olomoucký kraj_4	Str.pro otevřenou společnost
64	Moravskoslezský kraj_30	SVOBODNÍ
65	Jihomoravský kraj_5	Moravská demokratická strana
66	Plzeňský kraj_19	NEZÁVISLÍ
67	Pardubický kraj_34	Pravý Blok
68	Plzeňský kraj_36	Česká str.sociálně demokrat.
69	Liberecký kraj_8	Křesť.demokr.unie-Čs.str.lid.
70	Liberecký kraj_40	Česká strana národně sociální
71	Středočeský kraj_15	Republikáni Miroslava Sládka
72	Zlínský kraj_7	ZHN a SNK společně
73	Plzeňský kraj_8	Křesť.demokr.unie-Čs.str.lid.
74	Středočeský kraj_34	Pravý Blok
75	Liberecký kraj_41	SNK sdružení nezávislých
76	Ústecký kraj_44	Masarykova demokratická strana
77	Jihočeský kraj_54	Komunistická str.Čech a Moravy
78	Karlovarský kraj_50	Konzervativní strana
79	Plzeňský kraj_26	Občanská demokratická strana
80	Ústecký kraj_14	Unie svobody-Demokratická unie
81	Jihomoravský kraj_39	Evropští demokraté
82	Liberecký kraj_26	Občanská demokratická strana
83	Olomoucký kraj_36	Česká str.sociálně demokrat.
84	Královéhradecký kraj_8	Křesť.demokr.unie-Čs.str.lid.
85	Pardubický kraj_54	Komunistická str.Čech a Moravy
86	Karlovarský kraj_26	Občanská demokratická strana
87	Karlovarský kraj_24	Koalice pro Karlovarský kraj
88	Vysočina_47	Dělnická strana
89	Zlínský kraj_33	Koruna Česká (monarch.strana)
91	Ústecký kraj_38	Demokratická Unie České rep.
92	Plzeňský kraj_14	Unie svobody-Demokratická unie
93	Olomoucký kraj_8	Křesť.demokr.unie-Čs.str.lid.
94	Plzeňský kraj_54	Komunistická str.Čech a Moravy
95	Moravskoslezský kraj_15	Republikáni Miroslava Sládka
96	Královéhradecký kraj_41	SNK sdružení nezávislých
97	Středočeský kraj_43	Str.venkova-spoj.občan.síly
98	Ústecký kraj_8	Křesť.demokr.unie-Čs.str.lid.
99	Ústecký kraj_39	Evropští demokraté
100	Vysočina_19	NEZÁVISLÍ
101	Karlovarský kraj_54	Komunistická str.Čech a Moravy
102	Moravskoslezský kraj_45	Strana zdravého rozumu
103	Královéhradecký kraj_20	ED, VPM, SOS - Volba pro kraj
104	Ústecký kraj_41	SNK sdružení nezávislých
105	Moravskoslezský kraj_51	Morava
106	Olomoucký kraj_34	Pravý Blok
107	Ústecký kraj_54	Komunistická str.Čech a Moravy
108	Ústecký kraj_30	SVOBODNÍ
109	Plzeňský kraj_52	Národní sjednocení
110	Plzeňský kraj_46	Děl.str.-za snížení posl.platů
111	Středočeský kraj_52	Národní sjednocení
112	Moravskoslezský kraj_54	Komunistická str.Čech a Moravy
113	Pardubický kraj_42	Strana za životní jistoty
114	Moravskoslezský kraj_33	Koruna Česká (monarch.strana)
115	Jihočeský kraj_39	Evropští demokraté
116	Zlínský kraj_34	Pravý Blok
117	Ústecký kraj_31	NK+SŽJ+SV+SZR=SPOJ.OBČAN.SÍLY
118	Jihočeský kraj_36	Česká str.sociálně demokrat.
119	Liberecký kraj_34	Pravý Blok
120	Vysočina_54	Komunistická str.Čech a Moravy
122	Moravskoslezský kraj_26	Občanská demokratická strana
123	Liberecký kraj_25	České hnutí za národní jednotu
124	Ústecký kraj_21	Strana zelených
125	Jihočeský kraj_33	Koruna Česká (monarch.strana)
126	Moravskoslezský kraj_34	Pravý Blok
127	Plzeňský kraj_48	Váš hlas ... pro zdravotnictví
129	Moravskoslezský kraj_32	Helax-Ostrava se baví
130	Jihomoravský kraj_25	České hnutí za národní jednotu
131	Vysočina_26	Občanská demokratická strana
133	Středočeský kraj_19	NEZÁVISLÍ
134	Liberecký kraj_54	Komunistická str.Čech a Moravy
135	Jihomoravský kraj_14	Unie svobody-Demokratická unie
136	Středočeský kraj_54	Komunistická str.Čech a Moravy
137	Jihomoravský kraj_50	Konzervativní strana
138	Olomoucký kraj_33	Koruna Česká (monarch.strana)
139	Středočeský kraj_36	Česká str.sociálně demokrat.
140	Karlovarský kraj_36	Česká str.sociálně demokrat.
141	Jihomoravský kraj_36	Česká str.sociálně demokrat.
142	Moravskoslezský kraj_39	Evropští demokraté
143	Pardubický kraj_21	Strana zelených
144	Jihočeský kraj_12	Zelení a otevřená společnost
145	Liberecký kraj_45	Strana zdravého rozumu
146	Jihomoravský kraj_26	Občanská demokratická strana
147	Zlínský kraj_8	Křesť.demokr.unie-Čs.str.lid.
148	Olomoucký kraj_42	Strana za životní jistoty
149	Pardubický kraj_41	SNK sdružení nezávislých
150	Středočeský kraj_33	Koruna Česká (monarch.strana)
151	Moravskoslezský kraj_4	Str.pro otevřenou společnost
152	Liberecký kraj_19	NEZÁVISLÍ
153	Královéhradecký kraj_26	Občanská demokratická strana
154	Jihočeský kraj_14	Unie svobody-Demokratická unie
155	Olomoucký kraj_14	Unie svobody-Demokratická unie
156	Ústecký kraj_17	Evropská str.důstojného stáří
157	Pardubický kraj_26	Občanská demokratická strana
158	Královéhradecký kraj_13	Str.za ž.j.-Str.obč.rep.České
159	Středočeský kraj_30	SVOBODNÍ
160	Moravskoslezský kraj_14	Unie svobody-Demokratická unie
162	Ústecký kraj_52	Národní sjednocení
163	Jihočeský kraj_27	Volba pro město
164	Plzeňský kraj_50	Konzervativní strana
165	Karlovarský kraj_41	SNK sdružení nezávislých
166	Liberecký kraj_39	Evropští demokraté
167	Liberecký kraj_36	Česká str.sociálně demokrat.
168	Moravskoslezský kraj_25	České hnutí za národní jednotu
169	Vysočina_36	Česká str.sociálně demokrat.
170	Středočeský kraj_49	Koal.Dělnické a Národní strany
171	Královéhradecký kraj_21	Strana zelených
172	Liberecký kraj_47	Dělnická strana
173	Olomoucký kraj_15	Republikáni Miroslava Sládka
174	Ústecký kraj_26	Občanská demokratická strana
175	Jihomoravský kraj_16	ZELENÁ pro MORAVU
176	Olomoucký kraj_21	Strana zelených
177	Jihočeský kraj_42	Strana za životní jistoty
178	Zlínský kraj_14	Unie svobody-Demokratická unie
179	Zlínský kraj_19	NEZÁVISLÍ
180	Olomoucký kraj_19	NEZÁVISLÍ
181	Moravskoslezský kraj_23	Strana práce
182	Jihomoravský kraj_54	Komunistická str.Čech a Moravy
183	Zlínský kraj_11	Za prosp.a jistoty vých.Moravy
184	Pardubický kraj_3	Naděje
185	Zlínský kraj_47	Dělnická strana
186	Ústecký kraj_25	České hnutí za národní jednotu
187	Moravskoslezský kraj_52	Národní sjednocení
188	Středočeský kraj_22	Str.zel.a Str.pro otevř.spol.
189	Královéhradecký kraj_34	Pravý Blok
190	Jihomoravský kraj_8	Křesť.demokr.unie-Čs.str.lid.
191	Vysočina_42	Strana za životní jistoty
192	Karlovarský kraj_45	Strana zdravého rozumu
193	Moravskoslezský kraj_36	Česká str.sociálně demokrat.
194	Plzeňský kraj_39	Evropští demokraté
195	Královéhradecký kraj_14	Unie svobody-Demokratická unie
196	Královéhradecký kraj_45	Strana zdravého rozumu
197	Ústecký kraj_19	NEZÁVISLÍ
198	Karlovarský kraj_39	Evropští demokraté
199	Zlínský kraj_26	Občanská demokratická strana
200	Ústecký kraj_47	Dělnická strana
201	Vysočina_18	Strana zelených a US-DEU
202	Moravskoslezský kraj_8	Křesť.demokr.unie-Čs.str.lid.
203	Jihomoravský kraj_34	Pravý Blok
